{
  "useCustomJsCallback": {
    "id": "useCustomJsCallback",
    "value": "false"
  },
  "connectorApiId": {
    "id": "connectorApiId",
    "value": "com.decisyon.widget.px.visPieChart_V1",
    "dataType": "STRING"
  },
  "instanceReference": {
    "id": "instanceReference",
    "value": "56487851262343"
  },
  "defaultAutoExpandHeight": {
    "id": "defaultAutoExpandHeight",
    "value": "false"
  },
  "visibility": {
    "id": "visibility",
    "value": "visible",
    "dataType": "OBJECT"
  },
  "$pxPCDonut": {
    "id": "$pxPCDonut",
    "value": false,
    "dataType": "BOOLEAN"
  },
  "$pxPCInnerRadius": {
    "id": "$pxPCInnerRadius",
    "value": {
      "desc": "50",
      "longDesc": "50",
      "value": "50"
    },
    "dataType": "OBJECT"
  },
  "contAutoExpW": {
    "id": "contAutoExpW",
    "value": "false"
  },
  "$pxPCMaximumRegister": {
    "id": "$pxPCMaximumRegister",
    "value": 0,
    "dataType": "NUMBER"
  },
  "defaultReferenceName": {
    "id": "defaultReferenceName",
    "value": "pxVisPieChart",
    "dataType": "STRING"
  },
  "$pxPCShowTitle": {
    "id": "$pxPCShowTitle",
    "value": false,
    "dataType": "BOOLEAN"
  },
  "useDataConnector": {
    "id": "useDataConnector",
    "value": "true"
  },
  "$pxPCUsePercentage": {
    "id": "$pxPCUsePercentage",
    "value": false,
    "dataType": "BOOLEAN"
  },
  "exportParameters": {
    "id": "exportParameters",
    "value": "",
    "dataType": "OBJECT"
  },
  "importParameters": {
    "id": "importParameters",
    "value": "",
    "dataType": "OBJECT"
  },
  "$pxPCAggregateOtherRegister": {
    "id": "$pxPCAggregateOtherRegister",
    "value": false,
    "dataType": "BOOLEAN"
  },
  "refObjId": {
    "id": "refObjId",
    "value": "0"
  },
  "contAutoExpH": {
    "id": "contAutoExpH",
    "value": "false"
  },
  "contrUID": {
    "id": "contrUID",
    "value": "dshEmbedObject"
  },
  "mshPageId": {
    "id": "mshPageId",
    "value": "-1"
  },
  "defaultMinHeight": {
    "id": "defaultMinHeight",
    "value": "350",
    "dataType": "STRING"
  },
  "refObjType": {
    "id": "refObjType",
    "value": "264"
  },
  "defaultAutoExpandWidth": {
    "id": "defaultAutoExpandWidth",
    "value": "false"
  },
  "min-height": {
    "id": "min-height",
    "value": "350",
    "dataType": "STRING"
  },
  "$pxPCDecimalPercentage": {
    "id": "$pxPCDecimalPercentage",
    "value": 0,
    "dataType": "NUMBER"
  },
  "$pxPCPreserveDataOrder": {
    "id": "$pxPCPreserveDataOrder",
    "value": false,
    "dataType": "BOOLEAN"
  },
  "min-width": {
    "id": "min-width",
    "value": "350",
    "dataType": "STRING"
  },
  "owner": {
    "id": "owner",
    "value": ""
  },
  "defaultMinWidth": {
    "id": "defaultMinWidth",
    "value": "350",
    "dataType": "STRING"
  },
  "sharedLibDeps": {
    "id": "sharedLibDeps",
    "values": []
  }
}