<?xml version="1.0" encoding="UTF-8" standalone="no"?>
<svg width="70px" height="70px" viewBox="0 0 70 70" version="1.1" xmlns="http://www.w3.org/2000/svg" xmlns:xlink="http://www.w3.org/1999/xlink" xmlns:sketch="http://www.bohemiancoding.com/sketch/ns">
    <!-- Generator: Sketch 3.3.3 (12072) - http://www.bohemiancoding.com/sketch -->
    <title>Shape</title>
    <desc>Created with Sketch.</desc>
    <defs></defs>
    <g id="Template-Editor---V005" stroke="none" stroke-width="1" fill="none" fill-rule="evenodd" sketch:type="MSPage">
        <g id="Template-Editor---Delete-File/Folder-(Confirmation)" sketch:type="MSArtboardGroup" transform="translate(-447.000000, -187.000000)" fill="#CCCCCC">
            <g id="Group" sketch:type="MSLayerGroup" transform="translate(250.000000, 70.000000)">
                <g id="Rectangle-77-+-PREVIEW-Copy-+-DRAG-AND-DROP-AN-ITE-+-Shape-Copy-Copy" transform="translate(109.000000, 117.000000)" sketch:type="MSShapeGroup">
                    <g id="Rectangle-77-+-PREVIEW-Copy-+-DRAG-AND-DROP-AN-ITE-+-Shape">
                        <path d="M123,0 C103.75,0 88,15.75 88,35 C88,54.25 103.75,70 123,70 C142.25,70 158,54.25 158,35 C158,15.75 142.25,0 123,0 L123,0 Z M140.5,38.5 L126.5,38.5 L126.5,52.5 L119.5,52.5 L119.5,38.5 L105.5,38.5 L105.5,31.5 L119.5,31.5 L119.5,17.5 L126.5,17.5 L126.5,31.5 L140.5,31.5 L140.5,38.5 L140.5,38.5 Z" id="Shape"></path>
                    </g>
                </g>
            </g>
        </g>
    </g>
</svg>
